%YAML 1.1
%TAG !u! tag:unity3d.com,2011:
--- !u!319 &31900000
AvatarMask:
  m_ObjectHideFlags: 0
  m_CorrespondingSourceObject: {fileID: 0}
  m_PrefabInstance: {fileID: 0}
  m_PrefabAsset: {fileID: 0}
  m_Name: New Avatar Mask
  m_Mask: 01000000010000000100000001000000010000000100000001000000010000000100000001000000010000000100000001000000
  m_Elements:
  - m_Path: 
    m_Weight: 1
  - m_Path: Guy1
    m_Weight: 0
  - m_Path: Guy1/root
    m_Weight: 0
  - m_Path: Guy1/root/pelvis_L
    m_Weight: 0
  - m_Path: Guy1/root/pelvis_L/upperleg01_L
    m_Weight: 0
  - m_Path: Guy1/root/pelvis_L/upperleg01_L/upperleg02_L
    m_Weight: 0
  - m_Path: Guy1/root/pelvis_L/upperleg01_L/upperleg02_L/lowerleg01_L
    m_Weight: 0
  - m_Path: Guy1/root/pelvis_L/upperleg01_L/upperleg02_L/lowerleg01_L/lowerleg02_L
    m_Weight: 0
  - m_Path: Guy1/root/pelvis_L/upperleg01_L/upperleg02_L/lowerleg01_L/lowerleg02_L/foot_L
    m_Weight: 0
  - m_Path: Guy1/root/pelvis_L/upperleg01_L/upperleg02_L/lowerleg01_L/lowerleg02_L/foot_L/toe1-1_L
    m_Weight: 0
  - m_Path: Guy1/root/pelvis_R
    m_Weight: 0
  - m_Path: Guy1/root/pelvis_R/upperleg01_R
    m_Weight: 0
  - m_Path: Guy1/root/pelvis_R/upperleg01_R/upperleg02_R
    m_Weight: 0
  - m_Path: Guy1/root/pelvis_R/upperleg01_R/upperleg02_R/lowerleg01_R
    m_Weight: 0
  - m_Path: Guy1/root/pelvis_R/upperleg01_R/upperleg02_R/lowerleg01_R/lowerleg02_R
    m_Weight: 0
  - m_Path: Guy1/root/pelvis_R/upperleg01_R/upperleg02_R/lowerleg01_R/lowerleg02_R/foot_R
    m_Weight: 0
  - m_Path: Guy1/root/pelvis_R/upperleg01_R/upperleg02_R/lowerleg01_R/lowerleg02_R/foot_R/toe1-1_R
    m_Weight: 0
  - m_Path: Guy1/root/spine05
    m_Weight: 0
  - m_Path: Guy1/root/spine05/spine04
    m_Weight: 0
  - m_Path: Guy1/root/spine05/spine04/spine03
    m_Weight: 0
  - m_Path: Guy1/root/spine05/spine04/spine03/spine02
    m_Weight: 0
  - m_Path: Guy1/root/spine05/spine04/spine03/spine02/breast_L
    m_Weight: 0
  - m_Path: Guy1/root/spine05/spine04/spine03/spine02/breast_R
    m_Weight: 0
  - m_Path: Guy1/root/spine05/spine04/spine03/spine02/spine01
    m_Weight: 0
  - m_Path: Guy1/root/spine05/spine04/spine03/spine02/spine01/clavicle_L
    m_Weight: 0
  - m_Path: Guy1/root/spine05/spine04/spine03/spine02/spine01/clavicle_L/shoulder01_L
    m_Weight: 0
  - m_Path: Guy1/root/spine05/spine04/spine03/spine02/spine01/clavicle_L/shoulder01_L/upperarm01_L
    m_Weight: 0
  - m_Path: Guy1/root/spine05/spine04/spine03/spine02/spine01/clavicle_L/shoulder01_L/upperarm01_L/upperarm02_L
    m_Weight: 0
  - m_Path: Guy1/root/spine05/spine04/spine03/spine02/spine01/clavicle_L/shoulder01_L/upperarm01_L/upperarm02_L/lowerarm01_L
    m_Weight: 0
  - m_Path: Guy1/root/spine05/spine04/spine03/spine02/spine01/clavicle_L/shoulder01_L/upperarm01_L/upperarm02_L/lowerarm01_L/lowerarm02_L
    m_Weight: 0
  - m_Path: Guy1/root/spine05/spine04/spine03/spine02/spine01/clavicle_L/shoulder01_L/upperarm01_L/upperarm02_L/lowerarm01_L/lowerarm02_L/wrist_L
    m_Weight: 0
  - m_Path: Guy1/root/spine05/spine04/spine03/spine02/spine01/clavicle_L/shoulder01_L/upperarm01_L/upperarm02_L/lowerarm01_L/lowerarm02_L/wrist_L/finger1-1_L
    m_Weight: 0
  - m_Path: Guy1/root/spine05/spine04/spine03/spine02/spine01/clavicle_L/shoulder01_L/upperarm01_L/upperarm02_L/lowerarm01_L/lowerarm02_L/wrist_L/finger1-1_L/finger1-2_L
    m_Weight: 0
  - m_Path: Guy1/root/spine05/spine04/spine03/spine02/spine01/clavicle_L/shoulder01_L/upperarm01_L/upperarm02_L/lowerarm01_L/lowerarm02_L/wrist_L/finger1-1_L/finger1-2_L/finger1-3_L
    m_Weight: 0
  - m_Path: Guy1/root/spine05/spine04/spine03/spine02/spine01/clavicle_L/shoulder01_L/upperarm01_L/upperarm02_L/lowerarm01_L/lowerarm02_L/wrist_L/metacarpal1_L
    m_Weight: 0
  - m_Path: Guy1/root/spine05/spine04/spine03/spine02/spine01/clavicle_L/shoulder01_L/upperarm01_L/upperarm02_L/lowerarm01_L/lowerarm02_L/wrist_L/metacarpal1_L/finger2-1_L
    m_Weight: 0
  - m_Path: Guy1/root/spine05/spine04/spine03/spine02/spine01/clavicle_L/shoulder01_L/upperarm01_L/upperarm02_L/lowerarm01_L/lowerarm02_L/wrist_L/metacarpal1_L/finger2-1_L/finger2-2_L
    m_Weight: 0
  - m_Path: Guy1/root/spine05/spine04/spine03/spine02/spine01/clavicle_L/shoulder01_L/upperarm01_L/upperarm02_L/lowerarm01_L/lowerarm02_L/wrist_L/metacarpal1_L/finger2-1_L/finger2-2_L/finger2-3_L
    m_Weight: 0
  - m_Path: Guy1/root/spine05/spine04/spine03/spine02/spine01/clavicle_L/shoulder01_L/upperarm01_L/upperarm02_L/lowerarm01_L/lowerarm02_L/wrist_L/metacarpal2_L
    m_Weight: 0
  - m_Path: Guy1/root/spine05/spine04/spine03/spine02/spine01/clavicle_L/shoulder01_L/upperarm01_L/upperarm02_L/lowerarm01_L/lowerarm02_L/wrist_L/metacarpal2_L/finger3-1_L
    m_Weight: 0
  - m_Path: Guy1/root/spine05/spine04/spine03/spine02/spine01/clavicle_L/shoulder01_L/upperarm01_L/upperarm02_L/lowerarm01_L/lowerarm02_L/wrist_L/metacarpal2_L/finger3-1_L/finger3-2_L
    m_Weight: 0
  - m_Path: Guy1/root/spine05/spine04/spine03/spine02/spine01/clavicle_L/shoulder01_L/upperarm01_L/upperarm02_L/lowerarm01_L/lowerarm02_L/wrist_L/metacarpal2_L/finger3-1_L/finger3-2_L/finger3-3_L
    m_Weight: 0
  - m_Path: Guy1/root/spine05/spine04/spine03/spine02/spine01/clavicle_L/shoulder01_L/upperarm01_L/upperarm02_L/lowerarm01_L/lowerarm02_L/wrist_L/metacarpal3_L
    m_Weight: 0
  - m_Path: Guy1/root/spine05/spine04/spine03/spine02/spine01/clavicle_L/shoulder01_L/upperarm01_L/upperarm02_L/lowerarm01_L/lowerarm02_L/wrist_L/metacarpal3_L/finger4-1_L
    m_Weight: 0
  - m_Path: Guy1/root/spine05/spine04/spine03/spine02/spine01/clavicle_L/shoulder01_L/upperarm01_L/upperarm02_L/lowerarm01_L/lowerarm02_L/wrist_L/metacarpal3_L/finger4-1_L/finger4-2_L
    m_Weight: 0
  - m_Path: Guy1/root/spine05/spine04/spine03/spine02/spine01/clavicle_L/shoulder01_L/upperarm01_L/upperarm02_L/lowerarm01_L/lowerarm02_L/wrist_L/metacarpal3_L/finger4-1_L/finger4-2_L/finger4-3_L
    m_Weight: 0
  - m_Path: Guy1/root/spine05/spine04/spine03/spine02/spine01/clavicle_L/shoulder01_L/upperarm01_L/upperarm02_L/lowerarm01_L/lowerarm02_L/wrist_L/metacarpal4_L
    m_Weight: 0
  - m_Path: Guy1/root/spine05/spine04/spine03/spine02/spine01/clavicle_L/shoulder01_L/upperarm01_L/upperarm02_L/lowerarm01_L/lowerarm02_L/wrist_L/metacarpal4_L/finger5-1_L
    m_Weight: 0
  - m_Path: Guy1/root/spine05/spine04/spine03/spine02/spine01/clavicle_L/shoulder01_L/upperarm01_L/upperarm02_L/lowerarm01_L/lowerarm02_L/wrist_L/metacarpal4_L/finger5-1_L/finger5-2_L
    m_Weight: 0
  - m_Path: Guy1/root/spine05/spine04/spine03/spine02/spine01/clavicle_L/shoulder01_L/upperarm01_L/upperarm02_L/lowerarm01_L/lowerarm02_L/wrist_L/metacarpal4_L/finger5-1_L/finger5-2_L/finger5-3_L
    m_Weight: 0
  - m_Path: Guy1/root/spine05/spine04/spine03/spine02/spine01/clavicle_R
    m_Weight: 0
  - m_Path: Guy1/root/spine05/spine04/spine03/spine02/spine01/clavicle_R/shoulder01_R
    m_Weight: 0
  - m_Path: Guy1/root/spine05/spine04/spine03/spine02/spine01/clavicle_R/shoulder01_R/upperarm01_R
    m_Weight: 0
  - m_Path: Guy1/root/spine05/spine04/spine03/spine02/spine01/clavicle_R/shoulder01_R/upperarm01_R/upperarm02_R
    m_Weight: 0
  - m_Path: Guy1/root/spine05/spine04/spine03/spine02/spine01/clavicle_R/shoulder01_R/upperarm01_R/upperarm02_R/lowerarm01_R
    m_Weight: 0
  - m_Path: Guy1/root/spine05/spine04/spine03/spine02/spine01/clavicle_R/shoulder01_R/upperarm01_R/upperarm02_R/lowerarm01_R/lowerarm02_R
    m_Weight: 0
  - m_Path: Guy1/root/spine05/spine04/spine03/spine02/spine01/clavicle_R/shoulder01_R/upperarm01_R/upperarm02_R/lowerarm01_R/lowerarm02_R/wrist_R
    m_Weight: 0
  - m_Path: Guy1/root/spine05/spine04/spine03/spine02/spine01/clavicle_R/shoulder01_R/upperarm01_R/upperarm02_R/lowerarm01_R/lowerarm02_R/wrist_R/finger1-1_R
    m_Weight: 0
  - m_Path: Guy1/root/spine05/spine04/spine03/spine02/spine01/clavicle_R/shoulder01_R/upperarm01_R/upperarm02_R/lowerarm01_R/lowerarm02_R/wrist_R/finger1-1_R/finger1-2_R
    m_Weight: 0
  - m_Path: Guy1/root/spine05/spine04/spine03/spine02/spine01/clavicle_R/shoulder01_R/upperarm01_R/upperarm02_R/lowerarm01_R/lowerarm02_R/wrist_R/finger1-1_R/finger1-2_R/finger1-3_R
    m_Weight: 0
  - m_Path: Guy1/root/spine05/spine04/spine03/spine02/spine01/clavicle_R/shoulder01_R/upperarm01_R/upperarm02_R/lowerarm01_R/lowerarm02_R/wrist_R/metacarpal1_R
    m_Weight: 0
  - m_Path: Guy1/root/spine05/spine04/spine03/spine02/spine01/clavicle_R/shoulder01_R/upperarm01_R/upperarm02_R/lowerarm01_R/lowerarm02_R/wrist_R/metacarpal1_R/finger2-1_R
    m_Weight: 0
  - m_Path: Guy1/root/spine05/spine04/spine03/spine02/spine01/clavicle_R/shoulder01_R/upperarm01_R/upperarm02_R/lowerarm01_R/lowerarm02_R/wrist_R/metacarpal1_R/finger2-1_R/finger2-2_R
    m_Weight: 0
  - m_Path: Guy1/root/spine05/spine04/spine03/spine02/spine01/clavicle_R/shoulder01_R/upperarm01_R/upperarm02_R/lowerarm01_R/lowerarm02_R/wrist_R/metacarpal1_R/finger2-1_R/finger2-2_R/finger2-3_R
    m_Weight: 0
  - m_Path: Guy1/root/spine05/spine04/spine03/spine02/spine01/clavicle_R/shoulder01_R/upperarm01_R/upperarm02_R/lowerarm01_R/lowerarm02_R/wrist_R/metacarpal2_R
    m_Weight: 0
  - m_Path: Guy1/root/spine05/spine04/spine03/spine02/spine01/clavicle_R/shoulder01_R/upperarm01_R/upperarm02_R/lowerarm01_R/lowerarm02_R/wrist_R/metacarpal2_R/finger3-1_R
    m_Weight: 0
  - m_Path: Guy1/root/spine05/spine04/spine03/spine02/spine01/clavicle_R/shoulder01_R/upperarm01_R/upperarm02_R/lowerarm01_R/lowerarm02_R/wrist_R/metacarpal2_R/finger3-1_R/finger3-2_R
    m_Weight: 0
  - m_Path: Guy1/root/spine05/spine04/spine03/spine02/spine01/clavicle_R/shoulder01_R/upperarm01_R/upperarm02_R/lowerarm01_R/lowerarm02_R/wrist_R/metacarpal2_R/finger3-1_R/finger3-2_R/finger3-3_R
    m_Weight: 0
  - m_Path: Guy1/root/spine05/spine04/spine03/spine02/spine01/clavicle_R/shoulder01_R/upperarm01_R/upperarm02_R/lowerarm01_R/lowerarm02_R/wrist_R/metacarpal3_R
    m_Weight: 0
  - m_Path: Guy1/root/spine05/spine04/spine03/spine02/spine01/clavicle_R/shoulder01_R/upperarm01_R/upperarm02_R/lowerarm01_R/lowerarm02_R/wrist_R/metacarpal3_R/finger4-1_R
    m_Weight: 0
  - m_Path: Guy1/root/spine05/spine04/spine03/spine02/spine01/clavicle_R/shoulder01_R/upperarm01_R/upperarm02_R/lowerarm01_R/lowerarm02_R/wrist_R/metacarpal3_R/finger4-1_R/finger4-2_R
    m_Weight: 0
  - m_Path: Guy1/root/spine05/spine04/spine03/spine02/spine01/clavicle_R/shoulder01_R/upperarm01_R/upperarm02_R/lowerarm01_R/lowerarm02_R/wrist_R/metacarpal3_R/finger4-1_R/finger4-2_R/finger4-3_R
    m_Weight: 0
  - m_Path: Guy1/root/spine05/spine04/spine03/spine02/spine01/clavicle_R/shoulder01_R/upperarm01_R/upperarm02_R/lowerarm01_R/lowerarm02_R/wrist_R/metacarpal4_R
    m_Weight: 0
  - m_Path: Guy1/root/spine05/spine04/spine03/spine02/spine01/clavicle_R/shoulder01_R/upperarm01_R/upperarm02_R/lowerarm01_R/lowerarm02_R/wrist_R/metacarpal4_R/finger5-1_R
    m_Weight: 0
  - m_Path: Guy1/root/spine05/spine04/spine03/spine02/spine01/clavicle_R/shoulder01_R/upperarm01_R/upperarm02_R/lowerarm01_R/lowerarm02_R/wrist_R/metacarpal4_R/finger5-1_R/finger5-2_R
    m_Weight: 0
  - m_Path: Guy1/root/spine05/spine04/spine03/spine02/spine01/clavicle_R/shoulder01_R/upperarm01_R/upperarm02_R/lowerarm01_R/lowerarm02_R/wrist_R/metacarpal4_R/finger5-1_R/finger5-2_R/finger5-3_R
    m_Weight: 0
  - m_Path: Guy1/root/spine05/spine04/spine03/spine02/spine01/neck01
    m_Weight: 0
  - m_Path: Guy1/root/spine05/spine04/spine03/spine02/spine01/neck01/neck02
    m_Weight: 0
  - m_Path: Guy1/root/spine05/spine04/spine03/spine02/spine01/neck01/neck02/neck03
    m_Weight: 0
  - m_Path: Guy1/root/spine05/spine04/spine03/spine02/spine01/neck01/neck02/neck03/head
    m_Weight: 0
  - m_Path: Guy1/root/spine05/spine04/spine03/spine02/spine01/neck01/neck02/neck03/head/jaw
    m_Weight: 0
  - m_Path: Guy1/root/spine05/spine04/spine03/spine02/spine01/neck01/neck02/neck03/head/jaw/special04
    m_Weight: 0
  - m_Path: Guy1/root/spine05/spine04/spine03/spine02/spine01/neck01/neck02/neck03/head/jaw/special04/oris02
    m_Weight: 0
  - m_Path: Guy1/root/spine05/spine04/spine03/spine02/spine01/neck01/neck02/neck03/head/jaw/special04/oris02/oris01
    m_Weight: 0
  - m_Path: Guy1/root/spine05/spine04/spine03/spine02/spine01/neck01/neck02/neck03/head/jaw/special04/oris06_L
    m_Weight: 0
  - m_Path: Guy1/root/spine05/spine04/spine03/spine02/spine01/neck01/neck02/neck03/head/jaw/special04/oris06_L/oris07_L
    m_Weight: 0
  - m_Path: Guy1/root/spine05/spine04/spine03/spine02/spine01/neck01/neck02/neck03/head/jaw/special04/oris06_R
    m_Weight: 0
  - m_Path: Guy1/root/spine05/spine04/spine03/spine02/spine01/neck01/neck02/neck03/head/jaw/special04/oris06_R/oris07_R
    m_Weight: 0
  - m_Path: Guy1/root/spine05/spine04/spine03/spine02/spine01/neck01/neck02/neck03/head/jaw/tongue00
    m_Weight: 0
  - m_Path: Guy1/root/spine05/spine04/spine03/spine02/spine01/neck01/neck02/neck03/head/jaw/tongue00/tongue01
    m_Weight: 0
  - m_Path: Guy1/root/spine05/spine04/spine03/spine02/spine01/neck01/neck02/neck03/head/jaw/tongue00/tongue01/tongue02
    m_Weight: 0
  - m_Path: Guy1/root/spine05/spine04/spine03/spine02/spine01/neck01/neck02/neck03/head/jaw/tongue00/tongue01/tongue02/tongue03
    m_Weight: 0
  - m_Path: Guy1/root/spine05/spine04/spine03/spine02/spine01/neck01/neck02/neck03/head/jaw/tongue00/tongue01/tongue02/tongue03/tongue04
    m_Weight: 0
  - m_Path: Guy1/root/spine05/spine04/spine03/spine02/spine01/neck01/neck02/neck03/head/jaw/tongue00/tongue01/tongue02/tongue03/tongue07_L
    m_Weight: 0
  - m_Path: Guy1/root/spine05/spine04/spine03/spine02/spine01/neck01/neck02/neck03/head/jaw/tongue00/tongue01/tongue02/tongue03/tongue07_R
    m_Weight: 0
  - m_Path: Guy1/root/spine05/spine04/spine03/spine02/spine01/neck01/neck02/neck03/head/jaw/tongue00/tongue01/tongue02/tongue06_L
    m_Weight: 0
  - m_Path: Guy1/root/spine05/spine04/spine03/spine02/spine01/neck01/neck02/neck03/head/jaw/tongue00/tongue01/tongue02/tongue06_R
    m_Weight: 0
  - m_Path: Guy1/root/spine05/spine04/spine03/spine02/spine01/neck01/neck02/neck03/head/jaw/tongue00/tongue01/tongue05_L
    m_Weight: 0
  - m_Path: Guy1/root/spine05/spine04/spine03/spine02/spine01/neck01/neck02/neck03/head/jaw/tongue00/tongue01/tongue05_R
    m_Weight: 0
  - m_Path: Guy1/root/spine05/spine04/spine03/spine02/spine01/neck01/neck02/neck03/head/levator02_L
    m_Weight: 0
  - m_Path: Guy1/root/spine05/spine04/spine03/spine02/spine01/neck01/neck02/neck03/head/levator02_L/levator03_L
    m_Weight: 0
  - m_Path: Guy1/root/spine05/spine04/spine03/spine02/spine01/neck01/neck02/neck03/head/levator02_L/levator03_L/levator04_L
    m_Weight: 0
  - m_Path: Guy1/root/spine05/spine04/spine03/spine02/spine01/neck01/neck02/neck03/head/levator02_L/levator03_L/levator04_L/levator05_L
    m_Weight: 0
  - m_Path: Guy1/root/spine05/spine04/spine03/spine02/spine01/neck01/neck02/neck03/head/levator02_R
    m_Weight: 0
  - m_Path: Guy1/root/spine05/spine04/spine03/spine02/spine01/neck01/neck02/neck03/head/levator02_R/levator03_R
    m_Weight: 0
  - m_Path: Guy1/root/spine05/spine04/spine03/spine02/spine01/neck01/neck02/neck03/head/levator02_R/levator03_R/levator04_R
    m_Weight: 0
  - m_Path: Guy1/root/spine05/spine04/spine03/spine02/spine01/neck01/neck02/neck03/head/levator02_R/levator03_R/levator04_R/levator05_R
    m_Weight: 0
  - m_Path: Guy1/root/spine05/spine04/spine03/spine02/spine01/neck01/neck02/neck03/head/special01
    m_Weight: 0
  - m_Path: Guy1/root/spine05/spine04/spine03/spine02/spine01/neck01/neck02/neck03/head/special01/oris04_L
    m_Weight: 0
  - m_Path: Guy1/root/spine05/spine04/spine03/spine02/spine01/neck01/neck02/neck03/head/special01/oris04_L/oris03_L
    m_Weight: 0
  - m_Path: Guy1/root/spine05/spine04/spine03/spine02/spine01/neck01/neck02/neck03/head/special01/oris04_R
    m_Weight: 0
  - m_Path: Guy1/root/spine05/spine04/spine03/spine02/spine01/neck01/neck02/neck03/head/special01/oris04_R/oris03_R
    m_Weight: 0
  - m_Path: Guy1/root/spine05/spine04/spine03/spine02/spine01/neck01/neck02/neck03/head/special01/oris06
    m_Weight: 0
  - m_Path: Guy1/root/spine05/spine04/spine03/spine02/spine01/neck01/neck02/neck03/head/special01/oris06/oris05
    m_Weight: 0
  - m_Path: Guy1/root/spine05/spine04/spine03/spine02/spine01/neck01/neck02/neck03/head/special03
    m_Weight: 0
  - m_Path: Guy1/root/spine05/spine04/spine03/spine02/spine01/neck01/neck02/neck03/head/special03/levator06_L
    m_Weight: 0
  - m_Path: Guy1/root/spine05/spine04/spine03/spine02/spine01/neck01/neck02/neck03/head/special03/levator06_R
    m_Weight: 0
  - m_Path: Guy1/root/spine05/spine04/spine03/spine02/spine01/neck01/neck02/neck03/head/special06_L
    m_Weight: 0
  - m_Path: Guy1/root/spine05/spine04/spine03/spine02/spine01/neck01/neck02/neck03/head/special06_L/special05_L
    m_Weight: 0
  - m_Path: Guy1/root/spine05/spine04/spine03/spine02/spine01/neck01/neck02/neck03/head/special06_L/special05_L/eye_L
    m_Weight: 1
  - m_Path: Guy1/root/spine05/spine04/spine03/spine02/spine01/neck01/neck02/neck03/head/special06_L/special05_L/orbicularis03_L
    m_Weight: 1
  - m_Path: Guy1/root/spine05/spine04/spine03/spine02/spine01/neck01/neck02/neck03/head/special06_L/special05_L/orbicularis04_L
    m_Weight: 1
  - m_Path: Guy1/root/spine05/spine04/spine03/spine02/spine01/neck01/neck02/neck03/head/special06_R
    m_Weight: 0
  - m_Path: Guy1/root/spine05/spine04/spine03/spine02/spine01/neck01/neck02/neck03/head/special06_R/special05_R
    m_Weight: 0
  - m_Path: Guy1/root/spine05/spine04/spine03/spine02/spine01/neck01/neck02/neck03/head/special06_R/special05_R/eye_R
    m_Weight: 1
  - m_Path: Guy1/root/spine05/spine04/spine03/spine02/spine01/neck01/neck02/neck03/head/special06_R/special05_R/orbicularis03_R
    m_Weight: 1
  - m_Path: Guy1/root/spine05/spine04/spine03/spine02/spine01/neck01/neck02/neck03/head/special06_R/special05_R/orbicularis04_R
    m_Weight: 1
  - m_Path: Guy1/root/spine05/spine04/spine03/spine02/spine01/neck01/neck02/neck03/head/temporalis01_L
    m_Weight: 0
  - m_Path: Guy1/root/spine05/spine04/spine03/spine02/spine01/neck01/neck02/neck03/head/temporalis01_L/oculi02_L
    m_Weight: 0
  - m_Path: Guy1/root/spine05/spine04/spine03/spine02/spine01/neck01/neck02/neck03/head/temporalis01_L/oculi02_L/oculi01_L
    m_Weight: 0
  - m_Path: Guy1/root/spine05/spine04/spine03/spine02/spine01/neck01/neck02/neck03/head/temporalis01_R
    m_Weight: 0
  - m_Path: Guy1/root/spine05/spine04/spine03/spine02/spine01/neck01/neck02/neck03/head/temporalis01_R/oculi02_R
    m_Weight: 0
  - m_Path: Guy1/root/spine05/spine04/spine03/spine02/spine01/neck01/neck02/neck03/head/temporalis01_R/oculi02_R/oculi01_R
    m_Weight: 0
  - m_Path: Guy1/root/spine05/spine04/spine03/spine02/spine01/neck01/neck02/neck03/head/temporalis02_L
    m_Weight: 0
  - m_Path: Guy1/root/spine05/spine04/spine03/spine02/spine01/neck01/neck02/neck03/head/temporalis02_L/risorius02_L
    m_Weight: 0
  - m_Path: Guy1/root/spine05/spine04/spine03/spine02/spine01/neck01/neck02/neck03/head/temporalis02_L/risorius02_L/risorius03_L
    m_Weight: 0
  - m_Path: Guy1/root/spine05/spine04/spine03/spine02/spine01/neck01/neck02/neck03/head/temporalis02_R
    m_Weight: 0
  - m_Path: Guy1/root/spine05/spine04/spine03/spine02/spine01/neck01/neck02/neck03/head/temporalis02_R/risorius02_R
    m_Weight: 0
  - m_Path: Guy1/root/spine05/spine04/spine03/spine02/spine01/neck01/neck02/neck03/head/temporalis02_R/risorius02_R/risorius03_R
    m_Weight: 0
  - m_Path: Guy1_Body
    m_Weight: 0
  - m_Path: Guy1_Eyebrow009
    m_Weight: 0
  - m_Path: Guy1_High-poly
    m_Weight: 0
  - m_Path: Guy1_Male_casualsuit06
    m_Weight: 0
  - m_Path: Guy1_Shoes05
    m_Weight: 0
  - m_Path: Guy1_Short01
    m_Weight: 0
  - m_Path: Guy2_Eyelashes01
    m_Weight: 0
